{
  "name": "server",
  "$schema": "../../node_modules/nx/schemas/project-schema.json",
  "projectType": "application",
  "sourceRoot": "packages/server/src",
  "targets": {
    "build": {
      "executor": "@nx/deno:emit",
      "outputs": ["dist/packages/server"],
      "options": {
        "main": "packages/server/src/main.ts",
        "outputFile": "dist/packages/server/main.js",
        "denoConfig": "packages/server/deno.json"
      }
    },
    "serve": {
      "executor": "@nx/deno:run",
      "options": {
        "buildTarget": "server:build",
        "watch": true
      }
    },
    "test": {
      "executor": "@nx/deno:test",
      "outputs": ["coverage/packages/server"],
      "options": {
        "coverageDirectory": "coverage/packages/server",
        "denoConfig": "packages/server/deno.json"
      }
    },
    "lint": {
      "executor": "@nx/deno:lint",
      "options": {
        "denoConfig": "packages/server/deno.json"
      }
    }
  },
  "tags": []
}
